{
    "Comment": "Order submit state machine",
    "StartAt": "Fm2bPrincipalUpdateState",
    "States": {
        "Fm2bPrincipalUpdateState": {
            "Type": "Task",
            "Resource": "${Fm2bPrincipalUpdateLambda}",
            "Next": "Fm2bPrincipalUpdateChoiceState"
        },

        "Fm2bPrincipalUpdateChoiceState":{
            "Type" : "Choice",
            "Choices": [
                {
                    "Or": [
                        {
                            "Variable": "$.statusCode",
                            "NumericEquals": 204
                        },
                        {
                            "Variable": "$.statusCode",
                            "NumericEquals": 404
                        },
                        {
                            "Variable": "$.statusCode",
                            "NumericEquals": 405
                        }
                    ],
                    "Next": "InvalidFm2bPrincipalUpdateChoiceState"
                },
                {
                    "Variable": "$.statusCode",
                    "NumericEquals": 200,
                    "Next": "Fm3aRoboOrderSubmitState"
                },
                {
                    "Variable": "$.statusCode",
                    "NumericEquals": 203,
                    "Next": "RejectedFm2bPrincipalUpdateState"
                }
            ],
            "Default": "DefaultFm2bPrincipalUpdateChoiceState"
        },
  
        "InvalidFm2bPrincipalUpdateChoiceState": {
            "Type": "Fail",
            "Error": "InvalidFm2bPrincipalUpdateChoiceStateError",
            "Cause": "Invalid status code / event not found / event datatype is not dict / invalid 'new_status' value / unable to update status / invalid 'status_res'"
        },
  
        "Fm3aRoboOrderSubmitState": {
            "Type" : "Task",
            "Resource": "${Fm3aRoboOrderSubmitLambda}",
            "Next": "Fm3aRoboOrderSubmitChoiceState"
        },
  
        "RejectedFm2bPrincipalUpdateState": {
            "Type": "Succeed"
        },
  
        "DefaultFm2bPrincipalUpdateChoiceState": {
            "Type": "Fail",
            "Error": "DefaultFm2bPrincipalUpdateChoiceStateError",
            "Cause": "'statusCode' is not 200, 203, 204, 404, 405"
        },

        "Fm3aRoboOrderSubmitChoiceState":{
            "Type" : "Choice",
            "Choices": [
                {
                    "Or": [
                        {
                            "Variable": "$.statusCode",
                            "NumericEquals": 204
                        },
                        {
                            "Variable": "$.statusCode",
                            "NumericEquals": 404
                        }
                    ],
                    "Next": "InvalidFm3aRoboOrderSubmitChoiceState"
                },
                {
                    "Or": [
                        {
                            "Variable": "$.statusCode",
                            "NumericEquals": 200
                        },
                        {
                            "Variable": "$.statusCode",
                            "NumericEquals": 202
                        }
                    ],
                    "Next": "Fm3bRoboOrderUpdateState"
                }
            ],
            "Default": "DefaultFm3aRoboOrderSubmitChoiceState"
        },
  
        "InvalidFm3aRoboOrderSubmitChoiceState": {
            "Type": "Fail",
            "Error": "InvalidFm3aRoboOrderSubmitChoiceStateError",
            "Cause": "Invalid status code / event not found / event datatype is not dict"
        },
  
        "Fm3bRoboOrderUpdateState": {
            "Type" : "Task",
            "Resource": "${Fm3bRoboOrderUpdateLambda}",
            "Next": "Fm3bRoboOrderUpdateChoiceState"
        },
  
        "DefaultFm3aRoboOrderSubmitChoiceState": {
            "Type": "Fail",
            "Error": "DefaultFm3aRoboOrderSubmitChoiceStateError",
            "Cause": "'statusCode' is not 200, 202, 204, 404"
        },

        "Fm3bRoboOrderUpdateChoiceState":{
            "Type" : "Choice",
            "Choices": [
                {
                    "Or": [
                        {
                            "Variable": "$.statusCode",
                            "NumericEquals": 204
                        },
                        {
                            "Variable": "$.statusCode",
                            "NumericEquals": 404
                        },
                        {
                            "Variable": "$.statusCode",
                            "NumericEquals": 405
                        }
                    ],
                    "Next": "InvalidFm3bRoboOrderUpdateChoiceState"
                },
                {
                    "Variable": "$.statusCode",
                    "NumericEquals": 200,
                    "Next": "Fm4aStatementSubmitState"
                },
                {
                    "Variable": "$.statusCode",
                    "NumericEquals": 203,
                    "Next": "Fm3cRoboOrderRefundState"
                }
            ],
            "Default": "DefaultFm3bRoboOrderUpdateChoiceState"
        },
  
        "InvalidFm3bRoboOrderUpdateChoiceState": {
            "Type": "Fail",
            "Error": "InvalidFm3bRoboOrderUpdateChoiceStateError",
            "Cause": "Invalid status code / event not found / event datatype is not dict / invalid 'new_status' value / unable to update status / invalid 'status_res'"
        },
  
        "Fm4aStatementSubmitState": {
            "Type" : "Task",
            "Resource": "${Fm4aStatementSubmitLambda}",
            "Next": "Fm4aStatementSubmitChoiceState"
        },
  
        "Fm3cRoboOrderRefundState": {
            "Type" : "Task",
            "Resource": "${Fm3cRoboOrderRefundLambda}",
            "Next": "Fm3cRoboOrderRefundChoiceState"
        },
  
        "DefaultFm3bRoboOrderUpdateChoiceState": {
            "Type": "Fail",
            "Error": "DefaultFm3bRoboOrderUpdateChoiceStateError",
            "Cause": "'statusCode' is not 200, 203, 204, 404, 405"
        },
        
        "Fm4aStatementSubmitChoiceState":{
            "Type" : "Choice",
            "Choices": [
                {
                    "Or": [
                        {
                            "Variable": "$.statusCode",
                            "NumericEquals": 204
                        },
                        {
                            "Variable": "$.statusCode",
                            "NumericEquals": 404
                        }
                    ],
                    "Next": "InvalidFm4aStatementSubmitChoiceState"
                },
                {
                    "Or": [
                        {
                            "Variable": "$.statusCode",
                            "NumericEquals": 200
                        },
                        {
                            "Variable": "$.statusCode",
                            "NumericEquals": 202
                        }
                    ],
                    "Next": "Fm4bStatementUpdateState"
                }
            ],
            "Default": "DefaultFm4aStatementSubmitChoiceState"
        },
  
        "InvalidFm4aStatementSubmitChoiceState": {
            "Type": "Fail",
            "Error": "InvalidFm4aStatementSubmitChoiceStateError",
            "Cause": "Invalid status code / event not found / event datatype is not dict"
        },
  
        "Fm4bStatementUpdateState": {
            "Type" : "Task",
            "Resource": "${Fm4bStatementUpdateLambda}",
            "End": true
        },
  
        "DefaultFm4aStatementSubmitChoiceState": {
            "Type": "Fail",
            "Error": "DefaultFm4aStatementSubmitChoiceStateError",
            "Cause": "'statusCode' is not 200, 202, 204, 404"
        },

        "Fm3cRoboOrderRefundChoiceState":{
            "Type" : "Choice",
            "Choices": [
                {
                    "Or": [
                        {
                            "Variable": "$.statusCode",
                            "NumericEquals": 204
                        },
                        {
                            "Variable": "$.statusCode",
                            "NumericEquals": 404
                        }
                    ],
                    "Next": "InvalidFm3cRoboOrderRefundChoiceState"
                },
                {
                    "Or": [
                        {
                            "Variable": "$.statusCode",
                            "NumericEquals": 200
                        },
                        {
                            "Variable": "$.statusCode",
                            "NumericEquals": 202
                        }
                    ],
                    "Next": "Fm3dRoboOrderRefundUpdateState"
                }
            ],
            "Default": "DefaultFm3cRoboOrderRefundChoiceState"
        },
  
        "InvalidFm3cRoboOrderRefundChoiceState": {
            "Type": "Fail",
            "Error": "InvalidFm3cRoboOrderRefundChoiceStateError",
            "Cause": "Invalid status code / event not found / event datatype is not dict"
        },
  
        "Fm3dRoboOrderRefundUpdateState": {
            "Type" : "Task",
            "Resource": "${Fm3dRoboOrderRefundUpdateLambda}",
            "Next": "Fm3dRoboOrderRefundUpdateChoiceState"
        },
  
        "DefaultFm3cRoboOrderRefundChoiceState": {
            "Type": "Fail",
            "Error": "DefaultFm3cRoboOrderRefundChoiceStateError",
            "Cause": "'statusCode' is not 200, 202, 204, 404"
        },

        "Fm3dRoboOrderRefundUpdateChoiceState":{
            "Type" : "Choice",
            "Choices": [
                {
                    "Or": [
                        {
                            "Variable": "$.statusCode",
                            "NumericEquals": 204
                        },
                        {
                            "Variable": "$.statusCode",
                            "NumericEquals": 404
                        },
                        {
                            "Variable": "$.statusCode",
                            "NumericEquals": 405
                        }
                    ],
                    "Next": "InvalidFm3dRoboOrderRefundUpdateChoiceState"
                },
                {
                    "Variable": "$.statusCode",
                    "NumericEquals": 200,
                    "Next": "AcceptedFm3dRoboOrderRefundUpdateState"
                },
                {
                    "Variable": "$.statusCode",
                    "NumericEquals": 203,
                    "Next": "Fm3eRoboOrderRefundFailState"
                }
            ],
            "Default": "DefaultFm3dRoboOrderRefundUpdateChoiceState"
        },
  
        "InvalidFm3dRoboOrderRefundUpdateChoiceState": {
            "Type": "Fail",
            "Error": "InvalidFm3dRoboOrderRefundUpdateChoiceStateError",
            "Cause": "Invalid status code / event not found / event datatype is not dict / invalid 'new_status' value / unable to update status / invalid 'status_res'"
        },
  
        "AcceptedFm3dRoboOrderRefundUpdateState": {
            "Type": "Succeed"
        },
  
        "Fm3eRoboOrderRefundFailState": {
            "Type" : "Task",
            "Resource": "${Fm3eRoboOrderRefundFailLambda}",
            "End": true
        },
  
        "DefaultFm3dRoboOrderRefundUpdateChoiceState": {
            "Type": "Fail",
            "Error": "DefaultFm3dRoboOrderRefundUpdateChoiceStateError",
            "Cause": "'statusCode' is not 200, 203, 204, 404, 405"
        }
    }
}